   1.8512026e+03
   1.8516324e+03
   1.8519692e+03
   1.8519747e+03
   1.8523142e+03
   1.8523470e+03
   1.8523580e+03
   1.8523854e+03
   1.8529767e+03
   1.8531958e+03
   1.8532286e+03
   1.8533190e+03
   1.8534997e+03
   1.8541348e+03
   1.8563963e+03
   1.8565058e+03
   1.8565387e+03
   1.8566181e+03
   1.8571383e+03
   1.8574038e+03
   1.8575818e+03
   1.8580910e+03
   1.8581540e+03
   1.8584059e+03
   1.8589452e+03
   1.8601253e+03
   1.8601691e+03
   1.8605907e+03
   1.8608508e+03
   1.8609192e+03
   1.8609713e+03
   1.8611848e+03
   1.8617379e+03
   1.8618364e+03
   1.8621376e+03
   1.8628932e+03
   1.8629370e+03
   1.8631780e+03
   1.8637940e+03
   1.8639391e+03
   1.8639856e+03
   1.8654586e+03
   1.8659706e+03
   1.8660637e+03
   1.8663402e+03
   1.8664524e+03
   1.8668330e+03
   1.8669480e+03
   1.8669507e+03
   1.8676352e+03
   1.8678542e+03
   1.8678624e+03
   1.8687495e+03
   1.8689028e+03
   1.8689877e+03
   1.8692505e+03
   1.8694422e+03
   1.8695544e+03
   1.8698090e+03
   1.8698747e+03
   1.8701239e+03
   1.8705154e+03
   1.8705592e+03
   1.8706331e+03
   1.8710274e+03
   1.8711506e+03
   1.8711670e+03
   1.8717365e+03
   1.8718159e+03
   1.8721225e+03
   1.8722402e+03
   1.8727687e+03
   1.8731355e+03
   1.8742854e+03
   1.8745455e+03
   1.8748877e+03
   1.8749808e+03
   1.8753285e+03
   1.8759254e+03
   1.8759309e+03
   1.8759309e+03
   1.8769658e+03
   1.8770643e+03
   1.8771054e+03
   1.8771903e+03
   1.8777789e+03
   1.8778090e+03
   1.8781841e+03
   1.8781951e+03
   1.8782361e+03
   1.8784333e+03
   1.8786961e+03
   1.8790356e+03
   1.8791725e+03
   1.8795010e+03
   1.8800568e+03
   1.8805387e+03
   1.8806893e+03
   1.8809439e+03
   1.8811054e+03
   1.8819678e+03
   1.8821294e+03
   1.8822964e+03
   1.8822991e+03
   1.8823347e+03
   1.8828522e+03
   1.8837967e+03
   1.8838515e+03
   1.8840732e+03
   1.8848563e+03
   1.8851684e+03
   1.8854641e+03
   1.8859788e+03
   1.8866167e+03
   1.8866934e+03
   1.8867536e+03
   1.8869206e+03
   1.8871342e+03
   1.8874052e+03
   1.8882977e+03
   1.8890507e+03
   1.8891985e+03
   1.8897926e+03
   1.8901020e+03
   1.8901896e+03
   1.8912519e+03
   1.8916653e+03
   1.8926537e+03
   1.8935079e+03
   1.8944771e+03
   1.8953176e+03
   1.8960705e+03
   1.8962841e+03
   1.8963306e+03
   1.8996297e+03
   1.9013929e+03
   1.9026715e+03
   1.9050561e+03
   1.9051875e+03
   1.9055243e+03
   1.9067728e+03
   1.9081362e+03
   1.9082704e+03
   1.9086290e+03
   1.9091273e+03
   1.9098255e+03
   1.9103566e+03
   1.9109699e+03
   1.9125195e+03
   1.9137844e+03
   1.9144086e+03
   1.9166153e+03
   1.9180308e+03
   1.9225291e+03
   1.9226769e+03
   1.9235695e+03
   1.9271615e+03
   1.9281143e+03
   1.9301540e+03
   1.9307481e+03
   1.9310767e+03
   1.9318296e+03
   1.9318843e+03
   1.9320650e+03
   1.9328645e+03
   1.9328754e+03
   1.9338830e+03
   1.9347235e+03
   1.9356434e+03
   1.9356954e+03
   1.9365962e+03
   1.9374997e+03
   1.9383539e+03
   1.9398214e+03
   1.9402183e+03
   1.9404237e+03
   1.9414203e+03
   1.9415216e+03
   1.9415736e+03
   1.9420007e+03
   1.9421294e+03
   1.9424825e+03
   1.9469452e+03
   1.9470246e+03
   1.9476188e+03
   1.9476379e+03
   1.9476872e+03
   1.9514052e+03
   1.9578830e+03
   1.9604894e+03
   1.9622197e+03
